{"tbDocuments": [
{"tbDocID":"10","tbDocName":"Gate 4 Project charter and project management plan (PMP)","tbDocNameShort":"Gate 4 Project charter and project management plan (PMP)","tbDocStatus":"First Draft","tbDocPurpose":"Gate Help","tbDocWrittenBy":"Mike Ba","tbDocBriefDescription":"To address business case unknowns. A complete project charter, high-level PMP, and definition of the business solution are prerequisites for this gate.","tbDocCustomerID":"44","tbDocType":"HTML","tbDocHTMLContent":"<h1>Purpose: Gate 4 Project charter and PMP</h1>
<p>To address business case unknowns. A complete project charter, high-level PMP, and definition of the business solution are prerequisites for this gate. Any business case unknowns should be resolved here (or a plan in place to resolve them). Project cost and schedule estimates for the entire project should be 25%.</p>
<h1>Review issues</h1>
<ul>
<li>Validation that the project charter has addressed all issues critical for a successful project</li>
<li>Confirmation that proper project governance, planning, and management are in place</li>
</ul>
<h1>Why</h1>
<ul>
<li>To ensure that all necessary ingredients for successful execution are in place prior to construction and implementation</li>
<li>To reduce the risk of having to introduce quick fixes later</li>
</ul>
<h1>Core review items for this gate</h1>
<ol>
<li>Reconfirmation of business case, particularly feasibility of realizing outcomes, assumptions, constraints, and dependencies:</li>
</ol>
<p>Refinement of estimates and estimating assumptions</p>
<ol start="2">
<li>Reconfirmation of readiness to undertake the project</li>
<li>Completeness of the project charter:</li>
</ol>
<p>Absolute clarity of definition, and what is in and out of project scope</p>
<p>Clarity of roles, project sponsor, stakeholders, and governance</p>
<p>Documented definition of success, business outcomes and how they will be measured, and clarity of accountability for attaining the business outcomes Summary of approach, with a focus on roles, governance, and risks ? Identification of risks and assessment of whether risks are contained well enough to proceed 4. Definition of business solution:</p>
<p>Business architecture or model</p>
<p>Solution description, including high-level program design and business model; business transformation strategy and business process re-engineering strategy, if applicable&nbsp;</p>
<p>High-level functional requirements, and technical and performance requirements&nbsp;</p>
<p>High-level data model and data considerations</p>
<p>High-level functional design and concept of operations ? Commercial off-the-shelf options assessment, if applicable</p>
<ol start="5">
<li>High-level PMP: ? Elaboration of the project plan (work breakdown structure) and link to estimated costs and schedule \Requirements-gathering workshop</li>
</ol>
<p>Procurement plan Is it achievable in project time?&nbsp;</p>
<p>Business change management strategy and ability to be absorbed by organization&nbsp;</p>
<p>Business deployment strategy, including data issues</p>
<ol start="6">
<li>Skeleton PMO in place, suitable project manager identified, and key project staffing initiated</li>
</ol>
<h1>Supporting item(s)</h1>
<ol>
<li>Updated plan and estimate (10%) for tasks and level of effort to next project gate</li>
</ol>
<p>&nbsp; A Guide to Project Gating for IT-Enabled Projects</p>
<h1>Typical input to the review</h1>
<p>Updated business case, Project charter standard, Preliminary PMP, Solution description</p>
<h1>Review format</h1>
<p>Full review for larger projects or quick review as considered appropriate for smaller, low-risk initiatives</p>
<p>20</p>","tbDocGroup":"edit me","tbDocOwner":"edit me","tbDocPopular":"edit me","tbDocSortOrder":"0","tbDocLastModified":"","tbDocApprovedBy":"edit me"},
{"tbDocID":"22","tbDocName":"Gate 5 Detailed project plan and functional specifications","tbDocNameShort":"Gate 5 Detailed project plan and functional specifications","tbDocStatus":"First Draft","tbDocPurpose":"Gate Help","tbDocWrittenBy":"edit me","tbDocBriefDescription":"To confirm the completeness and feasibility of the detailed project plan and definition of requirements.","tbDocCustomerID":"44","tbDocType":"HTML","tbDocHTMLContent":"<h1>Purpose: Gate 5 Detailed project plan and functional specifications</h1>
<p><strong>To answer the key questions, How?</strong>&nbsp;The most feasible project options are considered here and the preferred option recommended. The project approach is now fully articulated. A high-level project plan has been tabled, upon which preliminary costing is based. The business case should include an investment rationale and describe outcomes to be achieved, as well as their justification relative to the proposed cost. Project cost and schedule estimates for the entire project should be in the 40% range. (Ranges assume a typical development or integration project where there are many unknowns at the early stages. An infrastructure replacement project might have a much smaller estimating range.)</p>
<h1>Review issues</h1>
<p>Assurance that the business case is thorough, complete, and compelling</p>
<p>Confirmation that the organization is ready to undertake the project</p>
<h1>Why</h1>
<p>To confirm that the business case is sufficiently compelling to justify, sustain, and guide the project</p>
<p>To identify any shortcomings in readiness for action before approval and confirm that key identified risks can be managed</p>
<h1>Core review items for this gate</h1>
<ol>
<li>Business case requirements:</li>
</ol>
<ul>
<li>Clarity of business problem statement</li>
<li>Clarity and precision of project goals must be sufficiently clear to provide focussed outcomes, and guide what is in and out of project scope</li>
<li>Clear business justification for the project investment, including how goals can be quantified and measured, and their attainment confirmed</li>
<li>Reconfirmation of the alignment of the project with organization s goals</li>
<li>Thoroughness of options analysis, including reasonableness of costs and benefits for each option and reasonableness of selected option</li>
<li>Indicative cost estimate and schedule</li>
<li>Estimating methodology, basis for assumptions, and sensitivity analysis</li>
</ul>
<ol start="2">
<li>Organizational readiness to undertake the project:</li>
</ol>
<p>Arrangements decided upon Project Management Office (PMO), strategies for outcome management, performance management, and risk management</p>
<ul>
<li>Initial project planning under way and mechanisms in place</li>
<li>Business requirements approach fully defined</li>
<li>Preparation of environment in which to run project</li>
<li>Assessment of organizational capacity relative to project difficulty (OPMCA)</li>
<li>Evidence of intent and ability to create an environment for project success</li>
<li>A Guide to Project Gating for IT-Enabled Projects 17</li>
</ul>
<h1>Supporting item(s)</h1>
<ol>
<li>Complete definition of the project:</li>
</ol>
<ul>
<li>Project complexity and risk levels, scope, size, and packaging</li>
<li>Risks, constraints, and dependencies (PCRA)</li>
<li>Architecture and technological alignment (within federal government and department)</li>
<li>Privacy issues (Privacy Impact Assessment, or PIA), security issues (Threat and Risk Assessment, or TRA), and other policy issues</li>
</ul>
<ol start="2">
<li>Updated plan and estimate (10%) for tasks, level of effort to next project gate</li>
<li>PCRA and OPMCA</li>
</ol>
<h1>Typical input to the review</h1>
<p>Business case standard, and detailed supporting analysis and documentation</p>
<p>PCRA</p>
<p>OPMCA</p>
<p>The Rubik's Cube the most popular puzzle. Learn the <a href="https://ruwix.com/the-rubiks-cube/how-to-solve-the-rubiks-cube-beginners-method/" target="_blank">easiest solution here</a>.</p>","tbDocGroup":"edit me","tbDocOwner":"edit me","tbDocPopular":"edit me","tbDocSortOrder":"1","tbDocLastModified":"","tbDocApprovedBy":"edit me"},
{"tbDocID":"2","tbDocName":"Gate 2 Project approach","tbDocNameShort":"Gate 2 Project approach","tbDocStatus":"First Draft","tbDocPurpose":"Gate Help","tbDocWrittenBy":"edit me","tbDocBriefDescription":"To confirm that the approach to address the business problem or opportunity is wise by testing its feasibility and appropriateness","tbDocCustomerID":"44","tbDocType":"HTML","tbDocHTMLContent":"<h1>Purpose Gate 2 Project approach:</h1>
<p><strong>To confirm that the approach to address the business problem or opportunity is wise by testing its feasibility and appropriateness. </strong>As in the Gate 1 review, this gate is not intended to be an overly burdensome undertaking and can often be performed in a one-day workshop session. The project group is expected to provide information on the approach envisaged for the undertaking a discussion that should flow logically from the focus on the business problem and alignment issues of the Gate 1 review.</p>
<h1>Review issues</h1>
<p>Validation of the wisdom and feasibility of the proposed approach to the project</p>
<h1>Why</h1>
<p>Experience and studies show that unwise decisions on project approach have frequently proven to be a major contributing factor to project failure</p>
<h1>Core review items for this gate</h1>
<ol>
<li>Reconfirmation of underlying business wisdom, precision of goals, commitment of stakeholders, and how expected business outcomes will be measured</li>
<li>Project classification (e.g., sustaining, tactical, etc.). See Appendix B for definitions of project class</li>
<li>Assessment of key elements in the approach description document, including:</li>
</ol>
<ul>
<li>How much redesigning will be required for the business process, model, and program delivery strategy</li>
<li>How business change will be decided upon and achieved</li>
<li>Precision of definition and scope Is the project definable and can its scope be bounded?</li>
<li>Preliminary business model</li>
<li>Extent of reuse of existing assets systems, data, business rules, procedures, and program delivery infrastructures</li>
<li>How transition to new environments will occur for both the business program and the associated IT systems</li>
<li>Make-versus-buy considerations</li>
<li>Environment in which project will be undertaken</li>
<li>Preview of risk assessment for the selected approach</li>
<li>Preview of how project will be governed</li>
</ul>
<p>Note: The expected level of detail for the above items relates to what is necessary to permit an assessment of the feasibility of the approach; the focus is on whether the approach is reasonable.</p>
<h1>Supporting item(s)</h1>
<ol>
<li>Reviewers would also benefit from previewing:</li>
</ol>
<ul>
<li>Project packaging (order of magnitude sizing [100%]), possible technological solutions, project staging and time frames, key roles and staffing considerations, goal alignment, architectural considerations, key assumptions, and risks</li>
<li>Project environment (governance, relative departmental capacity, project culture and discipline, business ownership, executive engagement and capacity, supporting functions such as human resources, finance, procurement, etc.)</li>
</ul>
<ol start="2">
<li>Updated plan and estimate (10%) for tasks and level of effort to next project gate</li>
</ol>
<p>Composed with the <a href="https://html-online.com/editor/">HTML instant editor</a>. Please purchase a HTMLg subscription license to stop adding promotional messages to the edited documents.</p>","tbDocGroup":"edit me","tbDocOwner":"edit me","tbDocPopular":"edit me","tbDocSortOrder":"2","tbDocLastModified":"","tbDocApprovedBy":"edit me"},
{"tbDocID":"3","tbDocName":"Gate 3 Business case and general readiness","tbDocNameShort":"Gate 3 Business case and general readiness","tbDocStatus":"First Draft","tbDocPurpose":"Gate Help","tbDocWrittenBy":"edit me","tbDocBriefDescription":"To answer the key question: How?","tbDocCustomerID":"44","tbDocType":"HTML","tbDocHTMLContent":"<h1>Purpose Gate 3 Business case and general readiness:</h1>
<p><strong>To answer the key question How?</strong>&nbsp;The most feasible project options are considered here and the preferred option recommended. The project approach is now fully articulated. A high-level project plan has been tabled, upon which preliminary costing is based. The business case should include an investment rationale and describe outcomes to be achieved, as well as their justification relative to the proposed cost. Project cost and schedule estimates for the entire project should be in the 40% range. (Ranges assume a typical development or integration project where there are many unknowns at the early stages. An infrastructure replacement project might have a much smaller estimating range.)</p>
<h1>Review issues</h1>
<p>Assurance that the business case is thorough, complete, and compelling</p>
<p>Confirmation that the organization is ready to undertake the project</p>
<h1>Why</h1>
<p>To confirm that the business case is sufficiently compelling to justify, sustain, and guide the project</p>
<p>To identify any shortcomings in readiness for action before approval and confirm that key identified risks can be managed</p>
<h1>Core review items for this gate</h1>
<ol>
<li>Business case requirements:</li>
</ol>
<ul>
<li>Clarity of business problem statement</li>
<li>Clarity and precision of project goals must be sufficiently clear to provide focussed outcomes, and guide what is in and out of project scope</li>
<li>Clear business justification for the project investment, including how goals can be quantified and measured, and their attainment confirmed</li>
<li>Reconfirmation of the alignment of the project with organizations goals</li>
<li>Thoroughness of options analysis, including reasonableness of costs and benefits for each option and reasonableness of selected option</li>
<li>Indicative cost estimate and schedule</li>
<li>Estimating methodology, basis for assumptions, and sensitivity analysis</li>
</ul>
<ol start="2">
<li>Organizational readiness to undertake the project:</li>
</ol>
<ul>
<li>Arrangements decided upon Project Management Office (PMO), strategies for outcome management, performance management, and risk management</li>
<li>Initial project planning under way and mechanisms in place</li>
<li>Business requirements approach fully defined</li>
<li>Preparation of environment in which to run project</li>
<li>Assessment of organizational capacity relative to project difficulty (OPMCA)</li>
<li>Evidence of intent and ability to create an environment for project success</li>
<li>A Guide to Project Gating for IT-Enabled Projects 17</li>
</ul>
<h1>Supporting item(s)</h1>
<ol>
<li>Complete definition of the project:</li>
</ol>
<ul>
<li>Project complexity and risk levels, scope, size, and packaging</li>
<li>Risks, constraints, and dependencies (PCRA)</li>
<li>Architecture and technological alignment (within federal government and department)</li>
<li>Privacy issues (Privacy Impact Assessment, or PIA), security issues (Threat and Risk Assessment, or TRA), and other policy issues</li>
</ul>
<ol start="2">
<li>Updated plan and estimate (10%) for tasks, level of effort to next project gate</li>
<li>PCRA and OPMCA</li>
</ol>
<h1>Typical input to the review</h1>
<p>Business case standard, and detailed supporting analysis and documentation</p>
<p>PCRA</p>
<p>OPMCA</p>","tbDocGroup":"edit me","tbDocOwner":"edit me","tbDocPopular":"edit me","tbDocSortOrder":"3","tbDocLastModified":"","tbDocApprovedBy":"edit me"},
{"tbDocID":"4","tbDocName":"Gate 6 Construction complete and deployment readiness","tbDocNameShort":"Gate 6 Construction complete and deployment readiness","tbDocStatus":"First Draft","tbDocPurpose":"Gate Help","tbDocWrittenBy":"Mike Ba","tbDocBriefDescription":"To verify that the system under development is ready for implementation and that the project is fully prepared for a successful deployment.","tbDocCustomerID":"44","tbDocType":"HTML","tbDocHTMLContent":"<h1>Purpose: Gate 6 Construction complete and deployment readiness</h1>
<p>To verify that the system under development is ready for implementation and that the project is fully prepared for a successful deployment. This gate represents a major point of approval for business readiness. There may be only one or a number of sub-gates and sub-gate reviews related to construction and deployment. (Other gateway approaches reviewed tended to treat construction or construction and deployment as one gate. This is perhaps because the projects under consideration were small or because there is an assumption that construction and deployment are well understood and have relatively low risk.) Based on the given situation and the degree of risk, the department should decide on the number, timing, and focus area for intermediate Gate 6 reviews during construction and deployment. For example, depending on the project structure, a gate could be established at the completion of a major development release or at the completion of a major rollout and deployment to a specified set of users. (See Notes on Gate 6 )</p>
<h1>Review issues</h1>
<p>Verification that construction is complete with user acceptance testing and migration to production firmly based on meeting acceptance criteria that support proceeding with deployment ? Confirm that deployment teams have been established and are prepared to manage a smooth transition</p>
<h1>Why</h1>
<p>To ensure the project is ready to proceed with deployment, and that system migration plans and ongoing support are in place</p>
<p>Core review items for this gate</p>
<ol>
<li>Reconfirmation that the project is aligned with departmental goals, the business case is valid, and expected outcomes will occur</li>
<li>Construction complete and deliverables, including all documentation, accepted</li>
<li>System migrated to production, and user acceptance testing complete</li>
<li>Business change management, deployment, training, data migration, and conversion plans complete</li>
<li>System migration plan validated</li>
<li>Ongoing support and service management plans in place</li>
<li>Vulnerability assessment complete</li>
<li>Overall business and project readiness</li>
</ol>
<h1>Supporting item(s)</h1>
<ol>
<li>Updated plan and estimate (10%) for tasks and level of effort to project close-out</li>
</ol>
<h1>Typical input to the review</h1>
<p>All sign-offs for user acceptance, production acceptance by operations, security certification and accreditation to go into production, maintenance team acceptance of documentation ? Deployment, training, data migration and system migration plans, and vulnerability assessment approved</p>
<p>Support and service management plan&nbsp;</p>
<p>Disaster recovery and business resumption plans</p>
<h1>Review format</h1>
<p>Quick or full review, depending on project size, risk, and complexity</p>
<h1>Notes on Gate 6</h1>
<p>Projects may adopt a variety of phasing approaches, and not all phasing approaches will be sequential. Some may be structured with parallel phases, making the choice of gates and the scope of gate reviews more subjective. In the case of large iterative development methodologies, gates and review points would ideally be established to ensure that development is moving toward closure that the iterations would not continue indefinitely or until the project runs out of time and money. The focus, then, is on the sign-offs against what has been delivered and on the clear agreement on what remains to be done. Examples of intermediate gates within the purview of Gate 6 include:</p>
<p>Construction release completion In a project that is structured to have multiple major releases, it is recommended that a gate be established at the completion of one or more of these releases.</p>
<p>Mid-phase health check A health check could be established in the middle of a project phase even if no major deliverables have been completed or decision points reached. The decision to do so might be based on some combination of dollars spent (e.g., $25 million), time elapsed (e.g., one year), and rate of expenditure (e.g., $2 million per month).</p>
<p>Construction and deployment readiness In many projects, deployment activities and construction actually occur in parallel. In some cases, deployment occurs after the completion of construction. Depending on the nature and size of the project, a gate might be established to create a decision point about whether or not to deploy.&nbsp;</p>
<p>Pilot deployment and full deployment readiness In some projects, a pilot deployment occurs immediately following the construction phase as a basis for deciding whether the system is ready for general deployment. This might be an appropriate point at which to establish a gate, depending on the size and nature of the project.</p>
<p>24</p>
<p>The Rubik's Cube seems to be an impossible puzzle but it's <a href="https://ruwix.com/the-rubiks-cube/how-to-solve-the-rubiks-cube-beginners-method/" rel="nofollow noopener">easy to solve</a> using just a few algorithms.</p>","tbDocGroup":"edit me","tbDocOwner":"edit me","tbDocPopular":"edit me","tbDocSortOrder":"4","tbDocLastModified":"","tbDocApprovedBy":"edit me"},
{"tbDocID":"5","tbDocName":"Gate 7 Post-implementation review<span style="white-space:pre">	</span>","tbDocNameShort":"Gate 7 Post-implementation review","tbDocStatus":"First Draft","tbDocPurpose":"Gate Help","tbDocWrittenBy":"edit me","tbDocBriefDescription":"To confirm completion, assess the extent to which the project has achieved its goals, and provide an assessment of value for money.","tbDocCustomerID":"44","tbDocType":"HTML","tbDocHTMLContent":"<h1>Purpose Gate 7 Post-implementation review</h1>
<p>To confirm completion, assess the extent to which the project has achieved its goals, and provide an assessment of value for money. This gate typically occurs approximately six months following project completion. A review at this point can also catalogue the lessons learned during the project those identified by the project group and those captured by independent reviewers.</p>
<h1>Review issues</h1>
<p>Verify that the project was completed as planned and that the expected business outcomes were actually realized ? Assess the degree of success for the transition to an ongoing service&nbsp;</p>
<h1>Why</h1>
<p>To confirm success from a project delivery and business perspective ? To determine what lessons might benefit the department and the broader community in future undertakings</p>
<h1>Core review items for this gate</h1>
<ol>
<li>Project delivery measured against original objectives</li>
<li>Confirmation of the archiving of information and deliverables, as applicable</li>
<li>Knowledge transfer and transition to successful service</li>
<li>Completion of contractual obligations</li>
<li>Validation of business outcomes</li>
<li>Capture of lessons learned, including review process</li>
<li>Project close-out report completed</li>
</ol>
<h1>Typical input to the review</h1>
<ul>
<li>Project close-out report</li>
<li>Business outcomes measurement plan</li>
<li>Contract acceptance reports</li>
<li>Project lessons learned</li>
</ul>
<h1>Review format</h1>
<p>Workshop to full review, depending on project</p>","tbDocGroup":"edit me","tbDocOwner":"edit me","tbDocPopular":"edit me","tbDocSortOrder":"5","tbDocLastModified":"","tbDocApprovedBy":"edit me"},
{"tbDocID":"27","tbDocName":"Gate 1 Strategic assessment and concept","tbDocNameShort":"Gate 1 Strategic assessment and concept","tbDocStatus":"Approved","tbDocPurpose":"Gate Help","tbDocWrittenBy":"edit me","tbDocBriefDescription":"To answer the key questions What do we want to do? and Why?","tbDocCustomerID":"44","tbDocType":"HTML","tbDocHTMLContent":"<h1>Purpose Gate 1 Strategic assessment and concept</h1>
<p>To answer the key questions What do we want to do? and Why? The objectives at this early stage are to test the wisdom and appropriateness of the proposed undertaking, and to ensure that key stakeholders are identified, and that everyone understands what is to be done and why. A half- to one-day workshop session is typical, preceded by reading of any available early project documents. The Gate 1 review seeks to arm the review sponsor with considerations that should be addressed before the next phase of the project and, in some cases, may actually dictate going back to the drawing board before proceeding further.</p>
<h1>Review issues</h1>
<ul><li>Validation of the rationale for the project</li><li> Confirmation that underlying fundamentals make sense&nbsp;</li><li> Assessment that the project is doable as proposed</li></ul>
<h1>Why</h1>
<p>To eliminate ideas that do not make sense or will prove to be impossible to execute</p>
<h1>Core review items for this gate</h1>
<ol>
<li>Wisdom and appropriateness of proposed undertaking</li>
<li>Articulation of the business problem and validity of the business imperative</li>
<li>Definition and boundaries of scope</li>
<li>Definition and measures of success</li>
<li>Degree of common understanding about the proposal among parties involved</li>
<li>Identification of stakeholders and extent of support and commitment for the initiative</li>
<li>Confirmation that the project makes sense in the context of the departmental project portfolio and federal government priorities&nbsp;</li>
</ol>
<h1>Supporting item(s)</h1>
<ol>
<li>Plan and estimate (10%) for tasks and level of effort to next project gate</li>
</ol>
<h1>Typical input to the review</h1>
<p>The project group provides reviewers with an understanding of why the project is being proposed, what it is intended to accomplish, and how it is defined. Supporting information to position the full context of the proposal might include reference to departmental reports and plans as well as an overview of the departments main business lines.</p>
<p>The following areas need to be addressed:</p>
<ol>
<li>The concept and imperative of the project, including identification of the project sponsor, the business problem statement in the context of the overall business strategy, the broad scope of the project, expected general business outcomes and indicators of success, key stakeholders, general business risks, approximate sizing of the project, and critical success factors.</li>
<li>The alignment of the project proposal with departmental Program Activity Architecture, program(s) delivery, departmental plans and priorities, broader federal government or cross-departmental goals, as appropriate, and positioning of the project in the context of the departmental information management and IT portfolio (including reference to departmental architectures). The positioning might also reference TBS-sponsored shared or common services and cluster initiatives, if relevant.</li>
<li>Review format Workshop review (conducting a few targeted interviews may be necessary)</li>
</ol>","tbDocGroup":"edit me","tbDocOwner":"edit me","tbDocPopular":"edit me","tbDocSortOrder":"6","tbDocLastModified":"","tbDocApprovedBy":"edit me"},
{"tbDocID":"201807430","tbDocName":"Gate 2 Business case and general readiness","tbDocNameShort":"Gate 2 Business case and general readiness","tbDocStatus":"First Draft","tbDocPurpose":"Gate Help","tbDocWrittenBy":"edit me","tbDocBriefDescription":"edit me","tbDocCustomerID":"44","tbDocType":"edit me","tbDocHTMLContent":"<p>Purpose&nbsp;Gate 2 Business case and general readiness</p><p>To confirm that the business case is sufficiently compelling to justify, sustain and guide the project; to identify any shortcomings in readiness for action before approval; and to confirm that key identified risks can be managed.</p>","tbDocGroup":"edit me","tbDocOwner":"edit me","tbDocPopular":"edit me","tbDocSortOrder":"7","tbDocLastModified":"","tbDocApprovedBy":"edit me"},
{"tbDocID":"20180745","tbDocName":"Gate 1 Project approach","tbDocNameShort":"Gate 1 Project approach","tbDocStatus":"First Draft","tbDocPurpose":"Gate Help","tbDocWrittenBy":"edit me","tbDocBriefDescription":"To confirm that the approach selected to address the business problem or opportunity is both feasible and appropriate.","tbDocCustomerID":"44","tbDocType":"edit me","tbDocHTMLContent":"<p>Purpose&nbsp;Gate 1 Project approach</p><p>To confirm that the approach selected to address the business problem or opportunity is both feasible and appropriate.</p>","tbDocGroup":"edit me","tbDocOwner":"edit me","tbDocPopular":"edit me","tbDocSortOrder":"8","tbDocLastModified":"","tbDocApprovedBy":"edit me"},
{"tbDocID":"201807434","tbDocName":"Gate 3 Pre-Construction","tbDocNameShort":"Gate 3 Pre-Construction","tbDocStatus":"In Progress","tbDocPurpose":"Gate Help","tbDocWrittenBy":"edit me","tbDocBriefDescription":"edit me","tbDocCustomerID":"44","tbDocType":"edit me","tbDocHTMLContent":"<p>Purpose:&nbsp;<span style="background-color: rgb(236, 238, 251); font-size: 14px;">Gate 3 Pre-Construction</span></p><p>To ensure that the resources, support and governance necessary for successful execution are in place prior to deployment</p>","tbDocGroup":"edit me","tbDocOwner":"edit me","tbDocPopular":"edit me","tbDocSortOrder":"9","tbDocLastModified":"","tbDocApprovedBy":"edit me"},
{"tbDocID":"201807435","tbDocName":"Gate 4 Pre-Deployment","tbDocNameShort":"Gate 4 Pre-Deployment","tbDocStatus":"First Draft","tbDocPurpose":"Gate Help","tbDocWrittenBy":"edit me","tbDocBriefDescription":"edit me","tbDocCustomerID":"44","tbDocType":"edit me","tbDocHTMLContent":"<p>Purpose:&nbsp;&nbsp;Gate 4 Pre-Deployment</p><p>To ensure that the resources, support and governance necessary for successful execution are in place prior to construction</p>","tbDocGroup":"edit me","tbDocOwner":"edit me","tbDocPopular":"edit me","tbDocSortOrder":"10","tbDocLastModified":"","tbDocApprovedBy":"edit me"},
{"tbDocID":"201807436","tbDocName":"Gate 5 Post Implementation","tbDocNameShort":"Gate 5 Post Implementation","tbDocStatus":"First Draft","tbDocPurpose":"Gate Help","tbDocWrittenBy":"edit me","tbDocBriefDescription":"edit me","tbDocCustomerID":"44","tbDocType":"edit me","tbDocHTMLContent":"<p>Purpose:&nbsp;Gate 5 Post Implementation</p><p>To confirm completion, assess the extent to which the project has achieved its goals, and provide an assessment of value for money.</p>","tbDocGroup":"edit me","tbDocOwner":"edit me","tbDocPopular":"edit me","tbDocSortOrder":"11","tbDocLastModified":"","tbDocApprovedBy":"edit me"},
{"tbDocID":"201807437","tbDocName":"Gate 1 Business Case","tbDocNameShort":"Gate 1 Business Case","tbDocStatus":"First Draft","tbDocPurpose":"Gate Help","tbDocWrittenBy":"edit me","tbDocBriefDescription":"edit me","tbDocCustomerID":"44","tbDocType":"edit me","tbDocHTMLContent":"<p>Purpose&nbsp;Gate 1 Business Case</p><p>To confirm that the business case is sufficiently compelling to justify, sustain and guide the project; to identify any shortcomings in readiness for action before approval; and to confirm that key identified risks can be managed.</p>","tbDocGroup":"edit me","tbDocOwner":"edit me","tbDocPopular":"edit me","tbDocSortOrder":"12","tbDocLastModified":"","tbDocApprovedBy":"edit me"},
{"tbDocID":"201807417","tbDocName":"Gate 2 Pre-Construction","tbDocNameShort":"Gate 2 Pre-Construction","tbDocStatus":"First Draft","tbDocPurpose":"Gate Help","tbDocWrittenBy":"edit me","tbDocBriefDescription":"edit me","tbDocCustomerID":"44","tbDocType":"edit me","tbDocHTMLContent":"<p>Purpose:&nbsp;Gate 2 Pre-Construction</p><p>To ensure that the resources, support and governance necessary for successful execution are in place prior to deployment</p>","tbDocGroup":"edit me","tbDocOwner":"edit me","tbDocPopular":"edit me","tbDocSortOrder":"13","tbDocLastModified":"","tbDocApprovedBy":"edit me"},
{"tbDocID":"201807419","tbDocName":"Gate 3 Post-implementation review","tbDocNameShort":"Gate 3 Post-implementation review","tbDocStatus":"First Draft","tbDocPurpose":"Gate Help","tbDocWrittenBy":"edit me","tbDocBriefDescription":"edit me","tbDocCustomerID":"44","tbDocType":"edit me","tbDocHTMLContent":"<p>Purpose:&nbsp;Gate 3 Post-implementation review</p><p>To confirm completion, assess the extent to which the project has achieved its goals, and provide an assessment of value for money.</p>","tbDocGroup":"edit me","tbDocOwner":"edit me","tbDocPopular":"edit me","tbDocSortOrder":"14","tbDocLastModified":"","tbDocApprovedBy":"edit me"},
{"tbDocID":"201807140","tbDocName":"Marketing Site Main Page","tbDocNameShort":"edit me","tbDocStatus":"First Draft","tbDocPurpose":"Marketing Page","tbDocWrittenBy":"edit me","tbDocBriefDescription":"edit me","tbDocCustomerID":"44","tbDocType":"edit me","tbDocHTMLContent":"            <div id="main">
                
                                <a id="Welcome"></a>
                <h1>Digital transformation at work</h1><p>A brand new approach to software design. Software you can use without training courses to understand how to use it. It is as simple as using a web page to pay your banking bills.</p>

                <p>
                        </p><p><img src="/images/addingtasksresources.gif" style="width: 600px;"><br></p><p><br></p>

<p><span style="color: inherit; font-family: inherit; font-size: 36px;">Contact Us</span><br></p></div>

                <p>
                    Jim Cox <br>
180 Portrush Ave. <br>
Ottawa, ON K2j 5K1  <br>                  
<br>
jimecox@live.ca<br>
                </p>","tbDocGroup":"edit me","tbDocOwner":"edit me","tbDocPopular":"edit me","tbDocSortOrder":"15","tbDocLastModified":"","tbDocApprovedBy":"edit me"},
{"tbDocID":"2018071515","tbDocName":"Why use Timebars web page","tbDocNameShort":"edit me","tbDocStatus":"First Draft","tbDocPurpose":"Marketing Page","tbDocWrittenBy":"edit me","tbDocBriefDescription":"edit me","tbDocCustomerID":"44","tbDocType":"edit me","tbDocHTMLContent":"<h3>Why choose to use Timebars?<br></h3>
                
<p>                    

To transform and simplify how you manage work with a new approach on modern computer screens. To allow you to manage your people and their commitments your way and still respecting the Enterprise systems. We need better and faster scheduling tools to graphically visualize commitments on a time scale. We cannot afford to keep using Excel and maintaining duplicate data any longer. And we should be constrained to limited screen real estate of typical PC monitors of today.</p><p><img src="images/timebarsbigscreen.png" style="width: 668px;"><br></p><p> </p>

<p> 
The above graphic illustrates my people working on Projects, Tasks and Software releases and I can schedule and track the work with my finger on a touch screen or with a mouse. </p>
              

                <a id="HotNewTools"></a>
                <p>Timebars is a "no installation", browser based dynamic web page for tracking who is working on what project and who is available for other work. </p><p>Using visual drag and drop gestures, you can move work allocations across the time scale and level over allocated resources.</p>

                <p>

                    
                </p>

                <p class="comments align-left">
                    You no longer have to depend on the IT Department, with Timebars you only need a
                    web browser and an internet connection.
                </p>



            

            <div id="sidebar">

                <h4>Wise Words</h4>
                <p>
                    "Criticism is something you can avoid easily by saying nothing,
                    doing nothing, and being nothing"</p><h3>Modern Technology</h3><p>
                </p>


            </div>


<p>ECMAScript, often referred to as JavaScript, is a memory-safe programming language that all websites and web applications depend upon. JavaScript is what turns a static page into a dynamic one (i.e. allowing it to perform dynamic computations). It has been a fast-growing language ever since its inception, and is now the prefered language amongst developers. ECMAScript has been thrust forward by active 2 superset languages, pushing its evolution ahead of other programming languages.</p>
<p>JavaScript Object Notation (JSON) is an open-standard file format using serialized objects. It has become the standard for browser and server communication. It is also used to translate data to other programming languages.</p>

<p>No Web Assembly required. Web Assemly is heralded as the next step for general public compute intensive web applications. By allowing performance-specific tasks to be hard-typed and compiled ahead of time, developers benefit from the convenience and performance of both high and low level languages, respectively.</p>","tbDocGroup":"edit me","tbDocOwner":"edit me","tbDocPopular":"edit me","tbDocSortOrder":"16","tbDocLastModified":"","tbDocApprovedBy":"edit me"},
{"tbDocID":"2018071558","tbDocName":"How to Purchase","tbDocNameShort":"edit me","tbDocStatus":"edit me","tbDocPurpose":"Marketing Page","tbDocWrittenBy":"edit me","tbDocBriefDescription":"edit me","tbDocCustomerID":"44","tbDocType":"edit me","tbDocHTMLContent":"                    <h1>How to Purchase</h1>

                    <p>
                        Use your credit card to get started <br>
                        Coming soon...
                    </p>  ","tbDocGroup":"edit me","tbDocOwner":"edit me","tbDocPopular":"edit me","tbDocSortOrder":"17","tbDocLastModified":"","tbDocApprovedBy":"edit me"},
{"tbDocID":"201807150","tbDocName":"What Can I use it for web page","tbDocNameShort":"edit me","tbDocStatus":"edit me","tbDocPurpose":"Marketing Page","tbDocWrittenBy":"edit me","tbDocBriefDescription":"edit me","tbDocCustomerID":"44","tbDocType":"edit me","tbDocHTMLContent":"<p><br></p>","tbDocGroup":"edit me","tbDocOwner":"edit me","tbDocPopular":"edit me","tbDocSortOrder":"18","tbDocLastModified":"","tbDocApprovedBy":"edit me"},
{"tbDocID":"201807151","tbDocName":"Licensing","tbDocNameShort":"edit me","tbDocStatus":"edit me","tbDocPurpose":"Marketing Page","tbDocWrittenBy":"edit me","tbDocBriefDescription":"Licensing","tbDocCustomerID":"44","tbDocType":"edit me","tbDocHTMLContent":"<h1>Licensing</h1>
<p>We plan to charge monthly subscription fee.</p>
<p>We have a free version but does not allow saving your data.</p>","tbDocGroup":"edit me","tbDocOwner":"edit me","tbDocPopular":"edit me","tbDocSortOrder":"19","tbDocLastModified":"","tbDocApprovedBy":"edit me"},
{"tbDocID":"2018071656","tbDocName":"Demos","tbDocNameShort":"edit me","tbDocStatus":"edit me","tbDocPurpose":"Marketing Page","tbDocWrittenBy":"edit me","tbDocBriefDescription":"edit me","tbDocCustomerID":"44","tbDocType":"edit me","tbDocHTMLContent":"<h3>Demos</h3>
<a href="http://res.cloudinary.com/dbdibjgrn/video/upload/v1532633134/Timebars%20Demos/Album_Medium.mp4">Timebars Launch Demo</a> <br>
<a href="http://res.cloudinary.com/dbdibjgrn/video/upload/v1525521858/tbvideo_custom.mp4">See Timebars live on 80 inch screen</a>
","tbDocGroup":"edit me","tbDocOwner":"edit me","tbDocPopular":"edit me","tbDocSortOrder":"20","tbDocLastModified":"","tbDocApprovedBy":"edit me"},
{"tbDocID":"2018071657","tbDocName":"Feedback","tbDocNameShort":"edit me","tbDocStatus":"edit me","tbDocPurpose":"Marketing Page","tbDocWrittenBy":"edit me","tbDocBriefDescription":"edit me","tbDocCustomerID":"44","tbDocType":"edit me","tbDocHTMLContent":"                    <h1>Feedback</h1>

                    <p>
Please send us an email with any feedback to help us improve our product.
                    </p>  ","tbDocGroup":"edit me","tbDocOwner":"edit me","tbDocPopular":"edit me","tbDocSortOrder":"21","tbDocLastModified":"","tbDocApprovedBy":"edit me"},
{"tbDocID":"2018071658","tbDocName":"Returning Users","tbDocNameShort":"edit me","tbDocStatus":"edit me","tbDocPurpose":"Marketing Page","tbDocWrittenBy":"edit me","tbDocBriefDescription":"edit me","tbDocCustomerID":"44","tbDocType":"edit me","tbDocHTMLContent":"                <a id="ReturningUsers"></a>
                <h1>Returning Users</h1>

  <p>
                <a href="/Canvas.html">Launch Timebars! (July 2018 Release)</a>

               

                </p>","tbDocGroup":"edit me","tbDocOwner":"edit me","tbDocPopular":"edit me","tbDocSortOrder":"22","tbDocLastModified":"","tbDocApprovedBy":"edit me"},
{"tbDocID":"2018071629","tbDocName":"New Users","tbDocNameShort":"edit me","tbDocStatus":"edit me","tbDocPurpose":"Marketing Page","tbDocWrittenBy":"edit me","tbDocBriefDescription":"edit me","tbDocCustomerID":"44","tbDocType":"edit me","tbDocHTMLContent":"
        <!-- content-wrap starts here -->
        <div id="content-wrap">

            <div id="main">


                <a id="NewUsers"></a>
                <h1>New Users</h1>

                <p>
                    It is easy to get started and use Timebars, it takes less than a minute and no software installation
                    is necessary because Timebars is simply a web page. You don't install web pages! We use browser cached only. </p><p>To get started, you navigate to <a href="http://www.timebars.com" style="background-color: rgb(255, 255, 255);">www.timebars.com</a>, click on Help button at the top and and follow instructions on the Help page to load demo data.</p>
                
                <p><span style="color: inherit; font-family: inherit; font-size: 36px;">What is Browser Cache?</span><br></p>
                


                <p><a href="https://developer.mozilla.org/en-US/docs/Web/API/IndexedDB_API/Basic_Concepts_Behind_IndexedDB">Mozilla</a> describes it as follows: Is a way for you to persistently store data inside a user's browser. Because it lets you create web applications with rich query abilities regardless of network availability, your applications can work both online and offline. The IndexedDB component is useful for browser based applications that store a large amount of data (for example, a list of tasks on a project), and applications that don't need persistent internet connectivity to operate.</p>
                
                                <p>
                
                Wikipedia describes it as follows: IndexedDB is a transnational database embedded in the browser. The database is organised around the concept of collections of JSON objects similarly to NoSQL databases MongoDB or CouchDB. Each object is identified with a key generated during insert. An indexation system allows to optimize access to objects. Optionally see&nbsp;<a href="https://www.w3.org/TR/IndexedDB/" style="background-color: rgb(255, 255, 255);">W3C HTML 5 IndexedDB</a>&nbsp;for details of the modern browser cache.</p></div><div id="sidebar">



            </div>

            <!-- content-wrap ends here -->
        </div>","tbDocGroup":"edit me","tbDocOwner":"edit me","tbDocPopular":"edit me","tbDocSortOrder":"23","tbDocLastModified":"","tbDocApprovedBy":"edit me"},
{"tbDocID":"2018071652","tbDocName":"How to return","tbDocNameShort":"edit me","tbDocStatus":"edit me","tbDocPurpose":"Marketing Page","tbDocWrittenBy":"edit me","tbDocBriefDescription":"edit me","tbDocCustomerID":"44","tbDocType":"edit me","tbDocHTMLContent":"                    <h1>How to Return</h1>

                    <p>
                        There would be nothing to return because there is nothing installed and nothing resides on our servers. <br>
                        If you no longer wish to pay for Timebars, send us an email and we will stop billing your credit card.
                    </p>  ","tbDocGroup":"edit me","tbDocOwner":"edit me","tbDocPopular":"edit me","tbDocSortOrder":"24","tbDocLastModified":"","tbDocApprovedBy":"edit me"},
{"tbDocID":"2018072422","tbDocName":"Getting Started Help Page","tbDocNameShort":"Getting Started","tbDocStatus":"First Draft","tbDocPurpose":"Timebar Help","tbDocWrittenBy":"Mike Ba","tbDocBriefDescription":"edit me","tbDocCustomerID":"44","tbDocType":"edit me","tbDocHTMLContent":"<ol><li>To get started, click menu items Admin &gt; DB-Admin &gt; Go</li><li>Look for "Success" in red text top left, if successful, Click Go-Timebars!</li><li>You should see the timescale Canvas and demo timebars! Drag bars to make start and finish date changes.</li><li>Click "Show Menu" on top left of Canvas. Use this to filter timebars for specific projects in Portfolios.</li><li>Hover over the Menu items, click on a Portfolio, Project or Sub-Project to display filtered Timebars.</li><li>Close the Menu, Click on a Timebar title to see cost, schedule and metadata information in Side Panel.</li><li>To edit the Timebar Title, begin typing in the Side Panel</li><li>To change cost and schedule data, move, stretch or shrink bars to suit.</li><li>To change Timescale and scheduling settings, click "Settings button".</li></ol>","tbDocGroup":"edit me","tbDocOwner":"edit me","tbDocPopular":"edit me","tbDocSortOrder":"25","tbDocLastModified":"","tbDocApprovedBy":"edit me"},
{"tbDocID":"2018072440","tbDocName":"Getting Started Help Page 2","tbDocNameShort":"Back up and Restore","tbDocStatus":"edit me","tbDocPurpose":"Timebar Help","tbDocWrittenBy":"Joe Ba","tbDocBriefDescription":"edit me","tbDocCustomerID":"44","tbDocType":"edit me","tbDocHTMLContent":"<h3>Make a Backup</h3>
<p>Click the "Data" button on main menu, click Backup Now! This will save the data within text files to a destination of your choosing. The following files are saved</p>
<ol>
<li>tbTimebars.txt (Timebars cost and schedule Data File)</li>
<li>tbMetaData.txt (Timebars Metadata Data File)</li>
<li>tbResources.txt (Resources Data File)</li>
<li>tbTags.txt (Tagging Data File)</li>
<li>tbResCalcs.txt (Resource Calculations Data File)</li>
<li>tbConfigData.txt (Admin Panel Confi Data File)</li></ol><p><br></p><ol>
</ol>
<h3>How do I populate the system with my Project data?</h3>
<div>
<p>Your data must be within a text file in JSON format with matching field names. Use the downloaded files to determine format.</p>
To upload your data, drag the text file onto the Canvas, Timebars will perform a backup then delete existing data and push the data from your text file into Timebars.
<ol>
<li>Timebars Data File</li>
<li>Metadata Data File</li>
<li>Resources Data File</li>
<li>Tagging Data File</li>
<li>Resource Calculations Data File</li>
<li>Admin Panel Confi Data File</li>
</ol></div>","tbDocGroup":"edit me","tbDocOwner":"edit me","tbDocPopular":"edit me","tbDocSortOrder":"26","tbDocLastModified":"","tbDocApprovedBy":"edit me"},
{"tbDocID":"2018072447","tbDocName":"Kanban help page 1","tbDocNameShort":"Getting Started","tbDocStatus":"First Draft","tbDocPurpose":"Kanban Help","tbDocWrittenBy":"edit me","tbDocBriefDescription":"edit me","tbDocCustomerID":"44","tbDocType":"edit me","tbDocHTMLContent":"<ul>
<li> To get started, click menu item DB-Admin &gt; Go. </li>
<li> Click Go-TbKanban to load up Kanban board. </li>
<li> The black round icons indicate sub-projects, click on a subproject "Title" to launch Kanban
bars. </li>
<li> To create a new Kanbar Bar, drag and drop the sub-project title onto the Canvas. </li>
<li> The bar will be in edit mode, change data to suit. When done adding items, click refresh.</li>
<li> Move bars around to suit, to edit click Edit Mode button on menu.</li>
</ul>","tbDocGroup":"edit me","tbDocOwner":"edit me","tbDocPopular":"edit me","tbDocSortOrder":"27","tbDocLastModified":"","tbDocApprovedBy":"edit me"},
{"tbDocID":"2018072436","tbDocName":"Common Help Page","tbDocNameShort":"Common help topics","tbDocStatus":"First Draft","tbDocPurpose":"Common Help","tbDocWrittenBy":"edit me","tbDocBriefDescription":"edit me","tbDocCustomerID":"44","tbDocType":"edit me","tbDocHTMLContent":"<h1>Estimating Process</h1>
<p>For complex or sizeable projects, five categories of estimates are prepared. The process begins with the development of an initial estimate that is further developed during the early phases of the project. It is recommended that Cost Planners be involved in preparing overall project.</p>
<h3><strong>Broad Cost Projection</strong></h3>
<p>Based on historical data from similar projects, indicates a budget for resources to develop a project as well whether or not total project costs are expected to exceed $1&nbsp;million. This is not a construction estimate.</p>
<h3><strong>Class&nbsp;'D' (Indicative) Estimate</strong></h3>
<p>To be in unit cost analysis format (such as cost per mÂ² or other measurement unit) based upon a comprehensive list of project requirements (i.e. scope) and assumptions; the Class D estimate is evolved throughout the phases of the Project Identification Stage, finally being incorporated into the cash flows in the Analysis Phase; for more complex projects such as laboratories, elemental cost analysis and the input of specific disciplines may be required;&nbsp;<em>the Class D Indicative estimates developed during the National Project Management System (NPMS) Feasibility Phase shall be revisited with cost planners in the Analysis Phase before finalizing.</em></p>
<h3><strong>Class&nbsp;'C' Estimate</strong></h3>
<p>To be in elemental cost analysis format latest edition issued by the Canadian Institute of Quantity Surveyors and based on a comprehensive list of requirements and assumptions, including a full description of the preferred schematic design option, construction/design experience, and market conditions;&nbsp;<em>Class C estimates are developed during the&nbsp;NPMS&nbsp;Design Phase</em></p>
<h3><strong>Class&nbsp;'B' (Substantive) Estimate</strong></h3>
<p>To be in elemental cost analysis format latest edition issued by the Canadian Institute of Quantity Surveyors and based on design development drawings and outline specifications, which include the design of all major systems and subsystems, as well as the results of all site/installation investigations;&nbsp;<em>Class B estimates are developed during the&nbsp;NPMS&nbsp;Design Phase;</em></p>
<h3><strong>Class&nbsp;'A' (Pre-Tender) Estimate</strong></h3>
<p>To be in both elemental cost analysis format as well as trade divisional format latest edition issued by the Canadian Institute of Quantity Surveyors and based on completed construction drawings and specifications prepared prior to calling competitive tenders. The Class 'A' Estimate is generally expected to be within 5% to 10% of the actual contract award price for new construction. Tendering risks should be included in the project risk plan and costed accordingly. The accuracy of Class 'A' estimates can be influenced by many factors, including complexity of project, volatile market, remote locations, tight schedules, and unclear contract documents;&nbsp;<em>Class 'A' estimates are prepared during the&nbsp;NPMS&nbsp;Implementation Phase and can be a more accurate Substantive Estimate, depending on the complexity of the project;</em></p>
<p>Note: from Public Services and Procurement Canada</p>","tbDocGroup":"edit me","tbDocOwner":"edit me","tbDocPopular":"edit me","tbDocSortOrder":"28","tbDocLastModified":"","tbDocApprovedBy":"edit me"}
]}
