{"tbTimebars": [
{"tbID":"2","tbSelfKey2":"","tbCoordTop":"40","tbName":"Business Support Systems Portfolio","tbType":"Portfolio","tbL1":"Business Support Systems","tbL2":"","tbL3":"","tbL4":"","tbL5":"","tbOwner":"spadmin","tbStart":"6/3/2018","tbFinish":"8/30/2018","tbDuration":"64","tbAStart":"","tbAFinish":"","tbRemainingDuration":"64","tbResID":"","tbCalendar":"","tbPercentTimeOn":"","tbWork":"0","tbAWork":"","tbWorkRemaining":"0","tbPercentComplete":"","tbCost":"","tbAcost":"","tbCostRemaining":"","tbPayRate":"","tbCostType":"","tbCostID":"","tbConstraintType":"","tbConstraintDate":"","tbFloat":"","tbFreeFloat":"","tbExpHoursPerWeek":"","canvasNo":"1","tbCoordLeft":"-610","tbCustomerID":"","tbMetaDataID":"0","tbBLID":"0","tbPredecessor":"0","tbAzureID":"5079b0e3-c886-4db3-85c4-a80de48ee24e"},
{"tbID":"8","tbSelfKey2":"2","tbCoordTop":"110","tbName":"Centralized Billing and Receivables","tbType":"Project","tbL1":"Business Support Systems","tbL2":"Centralized Billing and Receivables","tbL3":"ablank","tbL4":"","tbL5":"","tbOwner":"spadmin","tbStart":"6/16/2018","tbFinish":"11/3/2018","tbDuration":"100","tbAStart":"","tbAFinish":"","tbRemainingDuration":"100","tbResID":"0","tbCalendar":"8","tbPercentTimeOn":"0","tbWork":"0","tbAWork":"","tbWorkRemaining":"0","tbPercentComplete":"","tbCost":"","tbAcost":"","tbCostRemaining":"","tbPayRate":"0","tbCostType":"0","tbCostID":"0","tbConstraintType":"0","tbConstraintDate":"0","tbFloat":"0","tbFreeFloat":"0","tbExpHoursPerWeek":"0","canvasNo":"1","tbCoordLeft":"1090","tbCustomerID":"44","tbMetaDataID":"0","tbBLID":"0","tbPredecessor":"0","tbAzureID":"7c934cd9-4907-4e20-8e37-f8ec904c89bd"},
{"tbID":"17","tbSelfKey2":"8","tbCoordTop":"150","tbName":"Billing Strategy and Policy Review","tbType":"Sub-Project","tbL1":"Business Support Systems","tbL2":"Centralized Billing and Receivables","tbL3":"Billing Strategy and Policy Review","tbL4":"","tbL5":"","tbOwner":"spadmin","tbStart":"6/16/2018","tbFinish":"9/9/2018","tbDuration":"60","tbAStart":"","tbAFinish":"","tbRemainingDuration":"60","tbResID":"0","tbCalendar":"8","tbPercentTimeOn":"0","tbWork":"0","tbAWork":"","tbWorkRemaining":"0","tbPercentComplete":"","tbCost":"","tbAcost":"","tbCostRemaining":"","tbPayRate":"0","tbCostType":"0","tbCostID":"0","tbConstraintType":"0","tbConstraintDate":"0","tbFloat":"0","tbFreeFloat":"0","tbExpHoursPerWeek":"0","canvasNo":"1","tbCoordLeft":"120","tbCustomerID":"44","tbMetaDataID":"0","tbBLID":"0","tbPredecessor":"0","tbAzureID":"3ce071f9-acd0-4d2d-9d50-afcad0d3746e"},
{"tbID":"20","tbSelfKey2":"8","tbCoordTop":"270","tbName":"ERP Procurement Module Renewal","tbType":"Sub-Project","tbL1":"Business Support Systems","tbL2":"ERP Transformation","tbL3":"ERP Procurement Module Renewal","tbL4":"","tbL5":"","tbOwner":"spadmin","tbStart":"6/16/2018","tbFinish":"9/29/2018","tbDuration":"75","tbAStart":"","tbAFinish":"","tbRemainingDuration":"75","tbResID":"0","tbCalendar":"8","tbPercentTimeOn":"0","tbWork":"0","tbAWork":"","tbWorkRemaining":"0","tbPercentComplete":"","tbCost":"","tbAcost":"","tbCostRemaining":"","tbPayRate":"0","tbCostType":"0","tbCostID":"0","tbConstraintType":"0","tbConstraintDate":"0","tbFloat":"0","tbFreeFloat":"0","tbExpHoursPerWeek":"0","canvasNo":"1","tbCoordLeft":"1920","tbCustomerID":"44","tbMetaDataID":"0","tbBLID":"0","tbPredecessor":"0","tbAzureID":"9d5c0560-4fdd-403c-8bd3-14c5eced98cb"},
{"tbID":"13","tbSelfKey2":"2","tbCoordTop":"360","tbName":"HR Service Delivery","tbType":"Project","tbL1":"Business Support Systems","tbL2":"HR Service Delivery","tbL3":"ablank","tbL4":"","tbL5":"","tbOwner":"spadmin","tbStart":"6/19/2018","tbFinish":"10/2/2018","tbDuration":"76","tbAStart":"","tbAFinish":"","tbRemainingDuration":"76","tbResID":"0","tbCalendar":"8","tbPercentTimeOn":"0","tbWork":"0","tbAWork":"","tbWorkRemaining":"0","tbPercentComplete":"","tbCost":"","tbAcost":"","tbCostRemaining":"","tbPayRate":"0","tbCostType":"0","tbCostID":"0","tbConstraintType":"0","tbConstraintDate":"0","tbFloat":"0","tbFreeFloat":"0","tbExpHoursPerWeek":"0","canvasNo":"1","tbCoordLeft":"-570","tbCustomerID":"44","tbMetaDataID":"0","tbBLID":"0","tbPredecessor":"0","tbAzureID":"01e54cba-9408-48cd-98d5-182b9863027b"},
{"tbID":"23","tbSelfKey2":"13","tbCoordTop":"400","tbName":"HR Policy Update","tbType":"Sub-Project","tbL1":"Business Support Systems","tbL2":"HR Service Delivery","tbL3":"HR Policy Update","tbL4":"","tbL5":"","tbOwner":"spadmin","tbStart":"6/19/2018","tbFinish":"7/20/2018","tbDuration":"24","tbAStart":"","tbAFinish":"","tbRemainingDuration":"24","tbResID":"0","tbCalendar":"8","tbPercentTimeOn":"0","tbWork":"0","tbAWork":"","tbWorkRemaining":"0","tbPercentComplete":"","tbCost":"","tbAcost":"","tbCostRemaining":"","tbPayRate":"0","tbCostType":"0","tbCostID":"0","tbConstraintType":"0","tbConstraintDate":"0","tbFloat":"0","tbFreeFloat":"0","tbExpHoursPerWeek":"0","canvasNo":"1","tbCoordLeft":"830","tbCustomerID":"44","tbMetaDataID":"0","tbBLID":"0","tbPredecessor":"0","tbAzureID":"6448cf8d-bb45-4139-b20d-81a449506ab7"},
{"tbID":"24","tbSelfKey2":"13","tbCoordTop":"480","tbName":"HR SAP Envisioning","tbType":"Sub-Project","tbL1":"Business Support Systems","tbL2":"HR Service Delivery","tbL3":"HR SAP Envisioning","tbL4":"","tbL5":"","tbOwner":"spadmin","tbStart":"6/19/2018","tbFinish":"8/14/2018","tbDuration":"41","tbAStart":"","tbAFinish":"","tbRemainingDuration":"41","tbResID":"0","tbCalendar":"8","tbPercentTimeOn":"0","tbWork":"0","tbAWork":"","tbWorkRemaining":"0","tbPercentComplete":"","tbCost":"","tbAcost":"","tbCostRemaining":"","tbPayRate":"0","tbCostType":"0","tbCostID":"0","tbConstraintType":"0","tbConstraintDate":"0","tbFloat":"0","tbFreeFloat":"0","tbExpHoursPerWeek":"0","canvasNo":"1","tbCoordLeft":"-210","tbCustomerID":"44","tbMetaDataID":"0","tbBLID":"0","tbPredecessor":"0","tbAzureID":"187bb8e9-5790-4bd3-8ded-bead7558493e"},
{"tbID":"26","tbSelfKey2":"2","tbCoordTop":"540","tbName":"IM Policy and Guidelines","tbType":"Project","tbL1":"Business Support Systems","tbL2":"IM Policy and Guidelines","tbL3":"ablank","tbL4":"","tbL5":"","tbOwner":"spadmin","tbStart":"6/23/2018","tbFinish":"9/1/2018","tbDuration":"50","tbAStart":"","tbAFinish":"","tbRemainingDuration":"50","tbResID":"0","tbCalendar":"8","tbPercentTimeOn":"0","tbWork":"0","tbAWork":"","tbWorkRemaining":"0","tbPercentComplete":"","tbCost":"","tbAcost":"","tbCostRemaining":"","tbPayRate":"0","tbCostType":"0","tbCostID":"0","tbConstraintType":"0","tbConstraintDate":"0","tbFloat":"0","tbFreeFloat":"0","tbExpHoursPerWeek":"0","canvasNo":"1","tbCoordLeft":"7070","tbCustomerID":"44","tbMetaDataID":"0","tbBLID":"0","tbPredecessor":"0","tbAzureID":"c0af4981-89ed-4f00-9985-48c4e8db22bf"},
{"tbID":"18","tbSelfKey2":"26","tbCoordTop":"580","tbName":"Classified data in Public Cloud","tbType":"Sub-Project","tbL1":"Business Support Systems","tbL2":"IM Policy and Guidelines","tbL3":"Classified data in Public Cloud","tbL4":"","tbL5":"","tbOwner":"spadmin","tbStart":"6/23/2018","tbFinish":"10/13/2018","tbDuration":"80","tbAStart":"","tbAFinish":"","tbRemainingDuration":"80","tbResID":"0","tbCalendar":"8","tbPercentTimeOn":"0","tbWork":"0","tbAWork":"","tbWorkRemaining":"0","tbPercentComplete":"","tbCost":"","tbAcost":"","tbCostRemaining":"","tbPayRate":"0","tbCostType":"0","tbCostID":"0","tbConstraintType":"0","tbConstraintDate":"0","tbFloat":"0","tbFreeFloat":"0","tbExpHoursPerWeek":"0","canvasNo":"1","tbCoordLeft":"6030","tbCustomerID":"44","tbMetaDataID":"0","tbBLID":"0","tbPredecessor":"0","tbAzureID":"c548979d-0b31-4106-950e-723e0b8cb152"},
{"tbID":"27","tbSelfKey2":"26","tbCoordTop":"660","tbName":"Internal IM Policy Modernization","tbType":"Sub-Project","tbL1":"Business Support Systems","tbL2":"IM Policy and Guidelines","tbL3":"Internal IM Policy Modernization","tbL4":"","tbL5":"","tbOwner":"spadmin","tbStart":"6/23/2018","tbFinish":"8/4/2018","tbDuration":"30","tbAStart":"","tbAFinish":"","tbRemainingDuration":"30","tbResID":"0","tbCalendar":"8","tbPercentTimeOn":"0","tbWork":"0","tbAWork":"","tbWorkRemaining":"0","tbPercentComplete":"","tbCost":"","tbAcost":"","tbCostRemaining":"","tbPayRate":"0","tbCostType":"0","tbCostID":"0","tbConstraintType":"0","tbConstraintDate":"0","tbFloat":"0","tbFreeFloat":"0","tbExpHoursPerWeek":"0","canvasNo":"1","tbCoordLeft":"3190","tbCustomerID":"44","tbMetaDataID":"0","tbBLID":"0","tbPredecessor":"0","tbAzureID":"9b69eb44-263a-4545-8292-3ecfb151f93e"},
{"tbID":"33","tbSelfKey2":"26","tbCoordTop":"740","tbName":"TBS Compliance","tbType":"Sub-Project","tbL1":"Business Support Systems","tbL2":"IM Policy and Guidelines","tbL3":"TBS Compliance","tbL4":"","tbL5":"","tbOwner":"spadmin","tbStart":"6/23/2018","tbFinish":"9/22/2018","tbDuration":"65","tbAStart":"","tbAFinish":"","tbRemainingDuration":"65","tbResID":"0","tbCalendar":"8","tbPercentTimeOn":"0","tbWork":"0","tbAWork":"","tbWorkRemaining":"0","tbPercentComplete":"","tbCost":"","tbAcost":"","tbCostRemaining":"","tbPayRate":"0","tbCostType":"0","tbCostID":"0","tbConstraintType":"0","tbConstraintDate":"0","tbFloat":"0","tbFreeFloat":"0","tbExpHoursPerWeek":"0","canvasNo":"1","tbCoordLeft":"8910","tbCustomerID":"44","tbMetaDataID":"0","tbBLID":"0","tbPredecessor":"0","tbAzureID":"04a450ff-afda-444f-85d3-d82e09d1e08e"},
{"tbID":"3","tbSelfKey2":"","tbCoordTop":"839","tbName":"Core Product Delivery Portfolio","tbType":"Portfolio","tbL1":"Core Product Delivery","tbL2":"","tbL3":"","tbL4":"","tbL5":"","tbOwner":"spadmin","tbStart":"7/14/2018","tbFinish":"9/9/2018","tbDuration":"40","tbAStart":"","tbAFinish":"","tbRemainingDuration":"40","tbResID":"0","tbCalendar":"8","tbPercentTimeOn":"0","tbWork":"0","tbAWork":"","tbWorkRemaining":"0","tbPercentComplete":"","tbCost":"","tbAcost":"","tbCostRemaining":"","tbPayRate":"0","tbCostType":"0","tbCostID":"0","tbConstraintType":"0","tbConstraintDate":"0","tbFloat":"0","tbFreeFloat":"0","tbExpHoursPerWeek":"0","canvasNo":"1","tbCoordLeft":"310","tbCustomerID":"44","tbMetaDataID":"0","tbBLID":"0","tbPredecessor":"0","tbAzureID":"ddbc339c-28c4-4a20-af3f-7f484ef4fcfb"},
{"tbID":"9","tbSelfKey2":"3","tbCoordTop":"897","tbName":"Continuous Improvement Transformation","tbType":"Project","tbL1":"Core Product Delivery","tbL2":"Continuous Improvement Transformation","tbL3":"ablank","tbL4":"","tbL5":"","tbOwner":"spadmin","tbStart":"7/26/2018","tbFinish":"8/23/2018","tbDuration":"21","tbAStart":"","tbAFinish":"","tbRemainingDuration":"21","tbResID":"0","tbCalendar":"8","tbPercentTimeOn":"0","tbWork":"0","tbAWork":"","tbWorkRemaining":"0","tbPercentComplete":"","tbCost":"","tbAcost":"","tbCostRemaining":"","tbPayRate":"0","tbCostType":"0","tbCostID":"0","tbConstraintType":"0","tbConstraintDate":"0","tbFloat":"0","tbFreeFloat":"0","tbExpHoursPerWeek":"0","canvasNo":"1","tbCoordLeft":"9200","tbCustomerID":"44","tbMetaDataID":"0","tbBLID":"0","tbPredecessor":"0","tbAzureID":"f6b2cbd9-3193-4bd4-8673-2c6c933a0b51"},
{"tbID":"10","tbSelfKey2":"9","tbCoordTop":"917","tbName":"Constant Internal Delivery Enablement","tbType":"Sub-Project","tbL1":"Core Product Delivery","tbL2":"Continuous Improvement Transformation","tbL3":"Constant Internal Delivery Enablement","tbL4":"","tbL5":"","tbOwner":"spadmin","tbStart":"7/26/2018","tbFinish":"9/19/2018","tbDuration":"40","tbAStart":"","tbAFinish":"","tbRemainingDuration":"40","tbResID":"0","tbCalendar":"8","tbPercentTimeOn":"0","tbWork":"0","tbAWork":"","tbWorkRemaining":"0","tbPercentComplete":"","tbCost":"","tbAcost":"","tbCostRemaining":"","tbPayRate":"0","tbCostType":"0","tbCostID":"0","tbConstraintType":"0","tbConstraintDate":"0","tbFloat":"0","tbFreeFloat":"0","tbExpHoursPerWeek":"0","canvasNo":"1","tbCoordLeft":"4160","tbCustomerID":"44","tbMetaDataID":"0","tbBLID":"0","tbPredecessor":"0","tbAzureID":"a75be4a1-cce0-449a-84bc-5de723f959a7"},
{"tbID":"19","tbSelfKey2":"9","tbCoordTop":"997","tbName":"Database Upgrade Market Datamart","tbType":"Sub-Project","tbL1":"Core Product Delivery","tbL2":"Continuous Improvement Transformation","tbL3":"Database Upgrade Market Datamart","tbL4":"","tbL5":"","tbOwner":"spadmin","tbStart":"7/26/2018","tbFinish":"8/23/2018","tbDuration":"21","tbAStart":"","tbAFinish":"","tbRemainingDuration":"21","tbResID":"0","tbCalendar":"8","tbPercentTimeOn":"0","tbWork":"0","tbAWork":"","tbWorkRemaining":"0","tbPercentComplete":"","tbCost":"","tbAcost":"","tbCostRemaining":"","tbPayRate":"0","tbCostType":"0","tbCostID":"0","tbConstraintType":"0","tbConstraintDate":"0","tbFloat":"0","tbFreeFloat":"0","tbExpHoursPerWeek":"0","canvasNo":"1","tbCoordLeft":"3880","tbCustomerID":"44","tbMetaDataID":"0","tbBLID":"0","tbPredecessor":"0","tbAzureID":"a4a26de4-017c-45f0-9545-ee3444d7655d"},
{"tbID":"36","tbSelfKey2":"9","tbCoordTop":"1057","tbName":"Upgrade Ticketing System","tbType":"Sub-Project","tbL1":"Core Product Delivery","tbL2":"Continuous Improvement Transformation","tbL3":"Upgrade Ticketing System","tbL4":"","tbL5":"","tbOwner":"spadmin","tbStart":"7/26/2018","tbFinish":"9/6/2018","tbDuration":"31","tbAStart":"","tbAFinish":"","tbRemainingDuration":"31","tbResID":"0","tbCalendar":"8","tbPercentTimeOn":"0","tbWork":"0","tbAWork":"","tbWorkRemaining":"0","tbPercentComplete":"","tbCost":"","tbAcost":"","tbCostRemaining":"","tbPayRate":"0","tbCostType":"0","tbCostID":"0","tbConstraintType":"0","tbConstraintDate":"0","tbFloat":"0","tbFreeFloat":"0","tbExpHoursPerWeek":"0","canvasNo":"1","tbCoordLeft":"10000","tbCustomerID":"44","tbMetaDataID":"0","tbBLID":"0","tbPredecessor":"0","tbAzureID":"133ad97c-b0d9-4883-b2fd-a1f54872615f"},
{"tbID":"11","tbSelfKey2":"3","tbCoordTop":"1099","tbName":"Core Operations Program","tbType":"Project","tbL1":"Core Product Delivery","tbL2":"Core Operations Program","tbL3":"ablank","tbL4":"","tbL5":"","tbOwner":"spadmin","tbStart":"8/2/2018","tbFinish":"12/6/2018","tbDuration":"90","tbAStart":"","tbAFinish":"","tbRemainingDuration":"90","tbResID":"0","tbCalendar":"8","tbPercentTimeOn":"0","tbWork":"0","tbAWork":"","tbWorkRemaining":"0","tbPercentComplete":"","tbCost":"","tbAcost":"","tbCostRemaining":"","tbPayRate":"0","tbCostType":"0","tbCostID":"0","tbConstraintType":"0","tbConstraintDate":"0","tbFloat":"0","tbFreeFloat":"0","tbExpHoursPerWeek":"0","canvasNo":"1","tbCoordLeft":"8230","tbCustomerID":"44","tbMetaDataID":"0","tbBLID":"0","tbPredecessor":"0","tbAzureID":"56ce8c69-4b84-49e1-8149-2e00f48b6930"},
{"tbID":"21","tbSelfKey2":"11","tbCoordTop":"1139","tbName":"Extend WWT to support AI","tbType":"Sub-Project","tbL1":"Core Product Delivery","tbL2":"Core Operations Program","tbL3":"Extend WWT to support AI","tbL4":"","tbL5":"","tbOwner":"spadmin","tbStart":"8/2/2018","tbFinish":"8/30/2018","tbDuration":"20","tbAStart":"","tbAFinish":"","tbRemainingDuration":"20","tbResID":"0","tbCalendar":"8","tbPercentTimeOn":"0","tbWork":"0","tbAWork":"","tbWorkRemaining":"0","tbPercentComplete":"","tbCost":"","tbAcost":"","tbCostRemaining":"","tbPayRate":"0","tbCostType":"0","tbCostID":"0","tbConstraintType":"0","tbConstraintDate":"0","tbFloat":"0","tbFreeFloat":"0","tbExpHoursPerWeek":"0","canvasNo":"1","tbCoordLeft":"8990","tbCustomerID":"44","tbMetaDataID":"0","tbBLID":"0","tbPredecessor":"0","tbAzureID":"3d4beca3-e2ee-4179-97cd-9c631172a67d"},
{"tbID":"22","tbSelfKey2":"11","tbCoordTop":"1214","tbName":"Google Maps Integration","tbType":"Sub-Project","tbL1":"Core Product Delivery","tbL2":"Integration API Development Program","tbL3":"Google Maps Integration","tbL4":"","tbL5":"","tbOwner":"spadmin","tbStart":"8/2/2018","tbFinish":"9/27/2018","tbDuration":"40","tbAStart":"","tbAFinish":"","tbRemainingDuration":"40","tbResID":"0","tbCalendar":"8","tbPercentTimeOn":"0","tbWork":"0","tbAWork":"","tbWorkRemaining":"0","tbPercentComplete":"","tbCost":"","tbAcost":"","tbCostRemaining":"","tbPayRate":"0","tbCostType":"0","tbCostID":"0","tbConstraintType":"0","tbConstraintDate":"0","tbFloat":"0","tbFreeFloat":"0","tbExpHoursPerWeek":"0","canvasNo":"1","tbCoordLeft":"7190","tbCustomerID":"44","tbMetaDataID":"0","tbBLID":"0","tbPredecessor":"0","tbAzureID":"bbfe2a22-c6db-4793-b46d-f520a1ded97b"},
{"tbID":"4","tbSelfKey2":"","tbCoordTop":"1310","tbName":"IT Platform Portfolio","tbType":"Portfolio","tbL1":"IT Platform","tbL2":"","tbL3":"","tbL4":"","tbL5":"","tbOwner":"spadmin","tbStart":"7/23/2018","tbFinish":"8/18/2027","tbDuration":"2368","tbAStart":"","tbAFinish":"","tbRemainingDuration":"2368","tbResID":"0","tbCalendar":"8","tbPercentTimeOn":"0","tbWork":"0","tbAWork":"","tbWorkRemaining":"0","tbPercentComplete":"","tbCost":"","tbAcost":"","tbCostRemaining":"","tbPayRate":"0","tbCostType":"0","tbCostID":"0","tbConstraintType":"0","tbConstraintDate":"0","tbFloat":"0","tbFreeFloat":"0","tbExpHoursPerWeek":"0","canvasNo":"1","tbCoordLeft":"320","tbCustomerID":"44","tbMetaDataID":"0","tbBLID":"0","tbPredecessor":"0","tbAzureID":"9bf15d35-a3f4-432c-a067-9bb910d7a566"},
{"tbID":"7","tbSelfKey2":"4","tbCoordTop":"1350","tbName":"Business Continuity Management","tbType":"Project","tbL1":"IT Platform","tbL2":"Business Continuity Management Program","tbL3":"ablank","tbL4":"","tbL5":"","tbOwner":"spadmin","tbStart":"8/7/2018","tbFinish":"11/13/2018","tbDuration":"70","tbAStart":"","tbAFinish":"","tbRemainingDuration":"70","tbResID":"0","tbCalendar":"8","tbPercentTimeOn":"0","tbWork":"0","tbAWork":"","tbWorkRemaining":"0","tbPercentComplete":"","tbCost":"","tbAcost":"","tbCostRemaining":"","tbPayRate":"0","tbCostType":"0","tbCostID":"0","tbConstraintType":"0","tbConstraintDate":"0","tbFloat":"0","tbFreeFloat":"0","tbExpHoursPerWeek":"0","canvasNo":"1","tbCoordLeft":"5040","tbCustomerID":"44","tbMetaDataID":"0","tbBLID":"0","tbPredecessor":"0","tbAzureID":"b6f1932a-212b-4120-b1c4-b1bc4f72c716"},
{"tbID":"31","tbSelfKey2":"7","tbCoordTop":"1410","tbName":"SAP Platform Upgrade","tbType":"Sub-Project","tbL1":"IT Platform","tbL2":"Business Continuity Management Program","tbL3":"SAP Platform Upgrade","tbL4":"","tbL5":"","tbOwner":"spadmin","tbStart":"8/7/2018","tbFinish":"11/13/2018","tbDuration":"70","tbAStart":"","tbAFinish":"","tbRemainingDuration":"70","tbResID":"0","tbCalendar":"8","tbPercentTimeOn":"0","tbWork":"0","tbAWork":"","tbWorkRemaining":"0","tbPercentComplete":"","tbCost":"","tbAcost":"","tbCostRemaining":"","tbPayRate":"0","tbCostType":"0","tbCostID":"0","tbConstraintType":"0","tbConstraintDate":"0","tbFloat":"0","tbFreeFloat":"0","tbExpHoursPerWeek":"0","canvasNo":"1","tbCoordLeft":"6840","tbCustomerID":"44","tbMetaDataID":"0","tbBLID":"0","tbPredecessor":"0","tbAzureID":"d01f51ff-c067-4752-858d-179d9de70db8"},
{"tbID":"12","tbSelfKey2":"4","tbCoordTop":"1490","tbName":"Digital Workplace - Transformation","tbType":"Project","tbL1":"IT Platform","tbL2":"Digital Workplace - Transformation","tbL3":"ablank","tbL4":"","tbL5":"","tbOwner":"spadmin","tbStart":"8/7/2018","tbFinish":"10/16/2018","tbDuration":"50","tbAStart":"","tbAFinish":"","tbRemainingDuration":"50","tbResID":"0","tbCalendar":"8","tbPercentTimeOn":"0","tbWork":"0","tbAWork":"","tbWorkRemaining":"0","tbPercentComplete":"","tbCost":"","tbAcost":"","tbCostRemaining":"","tbPayRate":"0","tbCostType":"0","tbCostID":"0","tbConstraintType":"0","tbConstraintDate":"0","tbFloat":"0","tbFreeFloat":"0","tbExpHoursPerWeek":"0","canvasNo":"1","tbCoordLeft":"2880","tbCustomerID":"44","tbMetaDataID":"0","tbBLID":"0","tbPredecessor":"0","tbAzureID":"43fced7e-2f8d-4747-8824-f41faa34d7c0"}
]}
