"ap_name","apID","apCustomerID","apFilteredFrom","apAzureID","apTS_WeeklyOrMonthly","apTS_WeeklyPxFactor","apTS_Start","apTS_Finish","apHelpCoordTop","apHelpCoordLeft","apTS_MonthlyPxFactor","apStatusDate","apFilteredFromTbID","ap_HolidayDate","ap_HolidayName","apSchMethod","apTbVisibleLevel","zid","totalNumberOfPeople","numberOfPeoplePerLine","pxPerPerson","apHideCompletedBarsYN","id"
"Standard Config Settings","1","44","Canvas","nn","Weekly","10","01 Oct  2018","nn","50","400","2","08 Oct 2018","nn","nn","nn","Standard","L5","1","nn","nn","zzz","false",1
"Bar Graph Settings","2","44","Canvas","","","","","","","","","","","","","","","","30","3","7","",2
"Standard Holidays","3","","","","","","","","","","","","","12/25/2018","Christmas","","","","","","","",3