{
    "tbDocuments": [
        {
            "tbDocName": "Try Timebars",
            "tbDocCustomerID": "",
            "tbDocBriefDescription": "",
            "tbDocType": "HTML",
            "tbDocNameShort": "",
            "tbDocHTMLContent": " A bunch of content",
            "tbDocGroup": "Timebars Product",
            "tbDocPurpose": "Marketing Page",
            "tbDocOwner": "Jim Cox",
            "tbDocPopular": "Yes",
            "tbDocSortOrder": "16",
            "tbDocApprovedBy": "Jim Cox",
            "tbDocStatus": "Approved",
            "tbDocWrittenBy": "Jim Cox",
            "tbDocL1": "Timebars",
            "tbDocL2": "Marketing",
            "tbDocL3": "General",
            "tbDocL4": "NA",
            "tbDocL5": "NA",
            "tbDocCardImage": "images/gallery/32.png",
            "tbDocID": "new1"
        },
        {
            "tbDocName": "Learn More about Timebars",
            "tbDocCustomerID": "",
            "tbDocBriefDescription": "",
            "tbDocType": "HTML",
            "tbDocNameShort": "",
            "tbDocHTMLContent": "<p>Learn more. click here.</p>",
            "tbDocGroup": "Timebars Product",
            "tbDocPurpose": "Marketing Page",
            "tbDocOwner": "Jim Cox",
            "tbDocPopular": "Yes",
            "tbDocSortOrder": "16",
            "tbDocApprovedBy": "Jim Cox",
            "tbDocStatus": "Approved",
            "tbDocWrittenBy": "Jim Cox",
            "tbDocL1": "Timebars",
            "tbDocL2": "Marketing",
            "tbDocL3": "Help",
            "tbDocL4": "NA",
            "tbDocL5": "NA",
            "tbDocCardImage": "images/gallery/32.png",
            "tbDocID": "new2"
        },
        {
            "tbDocName": "Get Support",
            "tbDocCustomerID": "",
            "tbDocBriefDescription": "",
            "tbDocType": "HTML",
            "tbDocNameShort": "",
            "tbDocHTMLContent": "<p>Get Support Click here!</p>",
            "tbDocGroup": "Timebars Product",
            "tbDocPurpose": "Marketing Page",
            "tbDocOwner": "Jim Cox",
            "tbDocPopular": "Yes",
            "tbDocSortOrder": "16",
            "tbDocApprovedBy": "Jim Cox",
            "tbDocStatus": "Approved",
            "tbDocWrittenBy": "Jim Cox",
            "tbDocL1": "Timebars",
            "tbDocL2": "Marketing",
            "tbDocL3": "Help",
            "tbDocL4": "NA",
            "tbDocL5": "NA",
            "tbDocCardImage": "images/gallery/32.png",
            "tbDocID": "new3"
        }
    ]
}
