{
    "tbAdminPanel": [
        {
            "ap_name": "Standard Config Settings",
            "tbID": "a1",
            "apCustomerID": "a44",
            "apFilteredFrom": "Canvas",
            "apAzureID": "nn",
            "apTS_WeeklyOrMonthly": "Weekly",
            "apTS_WeeklyPxFactor": "10",
            "apTS_Start": "12/13/2019",
            "apTS_Finish": "",
            "apHelpCoordTop": "50",
            "apHelpCoordLeft": "400",
            "apTS_MonthlyPxFactor": "2",
            "apStatusDate": "12/13/2019",
            "apFilteredFromtbID": "nn",
            "ap_HolidayDate": "12/13/2019",
            "ap_HolidayName": "nn",
            "apSchMethod": "Standard",
            "apTbVisibleLevel": "L5",
            "totalNumberOfPeople": "5",
            "numberOfPeoplePerLine": "5",
            "pxPerPerson": "5",
            "apHideCompletedBarsYN": "false"
        },
        {
            "ap_name": "Bar Graph Settings",
            "tbID": "a2",
            "apCustomerID": "44",
            "apFilteredFrom": "Canvas",
            "apAzureID": "",
            "apTS_WeeklyOrMonthly": "",
            "apTS_WeeklyPxFactor": "",
            "apTS_Start": "",
            "apTS_Finish": "",
            "apHelpCoordTop": "",
            "apHelpCoordLeft": "",
            "apTS_MonthlyPxFactor": "",
            "apStatusDate": "",
            "apFilteredFromtbID": "",
            "ap_HolidayDate": "",
            "ap_HolidayName": "",
            "apSchMethod": "",
            "apTbVisibleLevel": "",
            "totalNumberOfPeople": "30",
            "numberOfPeoplePerLine": "3",
            "pxPerPerson": "7",
            "apHideCompletedBarsYN": "false"
        },
        {
            "ap_name": "Standard Holidays",
            "tbID": "a3",
            "apCustomerID": "",
            "apFilteredFrom": "",
            "apAzureID": "",
            "apTS_WeeklyOrMonthly": "",
            "apTS_WeeklyPxFactor": "",
            "apTS_Start": "",
            "apTS_Finish": "",
            "apHelpCoordTop": "",
            "apHelpCoordLeft": "",
            "apTS_MonthlyPxFactor": "",
            "apStatusDate": "",
            "apFilteredFromtbID": "",
            "ap_HolidayDate": "12/25/2018",
            "ap_HolidayName": "Christmas",
            "apSchMethod": "",
            "apTbVisibleLevel": "",
            "totalNumberOfPeople": "5",
            "numberOfPeoplePerLine": "5",
            "pxPerPerson": "5",
            "apHideCompletedBarsYN": "true"
        }
    ]
}
