{
    "tbTimebars": [
        {
            "tbSelfKey2": "",
            "tbName": "My New Portfolio",
            "tbType": "Portfolio",
            "tbL1": "My Portfolio",
            "tbL2": "My Project or Program",
            "tbL3": "My SubProject or Project if program above it",
            "tbL4": "My Task or my SubProject if program above",
            "tbL5": "My Allocation or task if program above",
            "tbStart": "29 Oct 2018",
            "tbFinish": "10 Nov 2018",
            "tbDuration": "10",
            "tbCoordTop": "314",
            "tbCoordLeft": "289",
            "tbResID": "a0",
            "tbCalendar": 5,
            "tbPercentTimeOn": 5,
            "tbCustomerID": "a44",
            "tbRemainingDuration": "10",
            "tbOwner": "255 text",
            "tbMetaDataID": "a0",
            "tbBLID": "a0",
            "tbPredecessor": "a0",
            "tbAStart": "mydate",
            "tbAFinish": "mydate",
            "tbWork": 5,
            "tbAWork": 5,
            "tbWorkRemaining": 5,
            "tbPercentComplete": 5,
            "tbConstraintType": "a0",
            "tbConstraintDate": "mydate",
            "tbFloat": 0,
            "tbFreeFloat": 0,
            "tbExpHoursPerWeek": 0,
            "tbCostID": "a0",
            "tbCost": 0,
            "tbCostRemaining": 0,
            "tbACost": 0,
            "tbPayRate": 5,
            "tbCostType": "a0",
            "canvasNo": 1,
            "tbAzureID": "a0",
            "kbCoordTop": 5,
            "kbCoordLeft": 5,
            "tbID": "a525"
        },
        {
            "tbSelfKey2": "a525",
            "tbName": "My New Program/Project",
            "tbType": "Project",
            "tbL1": "My Portfolio",
            "tbL2": "My Project or Program",
            "tbL3": "My SubProject or Project if program above it",
            "tbL4": "My Task or my SubProject if program above",
            "tbL5": "My Allocation or task if program above",
            "tbStart": "29 Oct 2018",
            "tbFinish": "10 Nov 2018",
            "tbDuration": "10",
            "tbCoordTop": "314",
            "tbCoordLeft": "289",
            "tbResID": "a0",
            "tbCalendar": 5,
            "tbPercentTimeOn": 5,
            "tbCustomerID": "a44",
            "tbRemainingDuration": "10",
            "tbOwner": "255 text",
            "tbMetaDataID": "a0",
            "tbBLID": "a0",
            "tbPredecessor": "a0",
            "tbAStart": "mydate",
            "tbAFinish": "mydate",
            "tbWork": 5,
            "tbAWork": 5,
            "tbWorkRemaining": 5,
            "tbPercentComplete": 5,
            "tbConstraintType": "a0",
            "tbConstraintDate": "mydate",
            "tbFloat": 0,
            "tbFreeFloat": 0,
            "tbExpHoursPerWeek": 0,
            "tbCostID": "a0",
            "tbCost": 0,
            "tbCostRemaining": 0,
            "tbACost": 0,
            "tbPayRate": 5,
            "tbCostType": "a0",
            "canvasNo": 1,
            "tbAzureID": "a0",
            "kbCoordTop": 5,
            "kbCoordLeft": 5,
            "tbID": "a526"
        },
        {
            "tbSelfKey2": "a526",
            "tbName": "My New Task",
            "tbType": "Task",
            "tbL1": "My Portfolio",
            "tbL2": "My Project or Program",
            "tbL3": "My SubProject or Project if program above it",
            "tbL4": "My Task or my SubProject if program above",
            "tbL5": "My Allocation or task if program above",
            "tbStart": "29 Oct 2018",
            "tbFinish": "10 Nov 2018",
            "tbDuration": "10",
            "tbCoordTop": "314",
            "tbCoordLeft": "289",
            "tbResID": "a0",
            "tbCalendar": 5,
            "tbPercentTimeOn": 5,
            "tbCustomerID": "a44",
            "tbRemainingDuration": "10",
            "tbOwner": "255 text",
            "tbMetaDataID": "a0",
            "tbBLID": "a0",
            "tbPredecessor": "a0",
            "tbAStart": "mydate",
            "tbAFinish": "mydate",
            "tbWork": 5,
            "tbAWork": 5,
            "tbWorkRemaining": 5,
            "tbPercentComplete": 5,
            "tbConstraintType": "a0",
            "tbConstraintDate": "mydate",
            "tbFloat": 0,
            "tbFreeFloat": 0,
            "tbExpHoursPerWeek": 0,
            "tbCostID": "a0",
            "tbCost": 0,
            "tbCostRemaining": 0,
            "tbACost": 0,
            "tbPayRate": 5,
            "tbCostType": "a0",
            "canvasNo": 1,
            "tbAzureID": "a0",
            "kbCoordTop": 5,
            "kbCoordLeft": 5,
            "tbID": "a527"
        },
        {
            "tbSelfKey2": "a526",
            "tbName": "My New Milestone",
            "tbType": "Milestone",
            "tbL1": "My Portfolio",
            "tbL2": "My Project or Program",
            "tbL3": "My SubProject or Project if program above it",
            "tbL4": "My Task or my SubProject if program above",
            "tbL5": "My Allocation or task if program above",
            "tbStart": "29 Oct 2018",
            "tbFinish": "10 Nov 2018",
            "tbDuration": "10",
            "tbCoordTop": "314",
            "tbCoordLeft": "289",
            "tbResID": "a0",
            "tbCalendar": 5,
            "tbPercentTimeOn": 5,
            "tbCustomerID": "a44",
            "tbRemainingDuration": "10",
            "tbOwner": "255 text",
            "tbMetaDataID": "a0",
            "tbBLID": "a0",
            "tbPredecessor": "a0",
            "tbAStart": "mydate",
            "tbAFinish": "mydate",
            "tbWork": 5,
            "tbAWork": 5,
            "tbWorkRemaining": 5,
            "tbPercentComplete": 5,
            "tbConstraintType": "a0",
            "tbConstraintDate": "mydate",
            "tbFloat": 0,
            "tbFreeFloat": 0,
            "tbExpHoursPerWeek": 0,
            "tbCostID": "a0",
            "tbCost": 0,
            "tbCostRemaining": 0,
            "tbACost": 0,
            "tbPayRate": 5,
            "tbCostType": "a0",
            "canvasNo": 1,
            "tbAzureID": "a0",
            "kbCoordTop": 5,
            "kbCoordLeft": 5,
            "tbID": "a528"
        },
        {
            "tbSelfKey2": "a526",
            "tbName": "My New Sub-Project",
            "tbType": "Sub-Project",
            "tbL1": "My Portfolio",
            "tbL2": "My Project or Program",
            "tbL3": "My SubProject or Project if program above it",
            "tbL4": "My Task or my SubProject if program above",
            "tbL5": "My Allocation or task if program above",
            "tbStart": "29 Oct 2018",
            "tbFinish": "10 Nov 2018",
            "tbDuration": "10",
            "tbCoordTop": "314",
            "tbCoordLeft": "289",
            "tbResID": "a0",
            "tbCalendar": 5,
            "tbPercentTimeOn": 5,
            "tbCustomerID": "a44",
            "tbRemainingDuration": "10",
            "tbOwner": "255 text",
            "tbMetaDataID": "a0",
            "tbBLID": "a0",
            "tbPredecessor": "a0",
            "tbAStart": "mydate",
            "tbAFinish": "mydate",
            "tbWork": 5,
            "tbAWork": 5,
            "tbWorkRemaining": 5,
            "tbPercentComplete": 5,
            "tbConstraintType": "a0",
            "tbConstraintDate": "mydate",
            "tbFloat": 0,
            "tbFreeFloat": 0,
            "tbExpHoursPerWeek": 0,
            "tbCostID": "a0",
            "tbCost": 0,
            "tbCostRemaining": 0,
            "tbACost": 0,
            "tbPayRate": 5,
            "tbCostType": "a0",
            "canvasNo": 1,
            "tbAzureID": "a0",
            "kbCoordTop": 5,
            "kbCoordLeft": 5,
            "tbID": "a529"
        },
        {
            "tbSelfKey2": "a526",
            "tbName": "My New Gate",
            "tbType": "Gate",
            "tbL1": "My Portfolio",
            "tbL2": "My Project or Program",
            "tbL3": "My SubProject or Project if program above it",
            "tbL4": "My Task or my SubProject if program above",
            "tbL5": "My Allocation or task if program above",
            "tbStart": "29 Oct 2018",
            "tbFinish": "10 Nov 2018",
            "tbDuration": "10",
            "tbCoordTop": "314",
            "tbCoordLeft": "289",
            "tbResID": "a0",
            "tbCalendar": 5,
            "tbPercentTimeOn": 5,
            "tbCustomerID": "a44",
            "tbRemainingDuration": "10",
            "tbOwner": "255 text",
            "tbMetaDataID": "a0",
            "tbBLID": "a0",
            "tbPredecessor": "a0",
            "tbAStart": "mydate",
            "tbAFinish": "mydate",
            "tbWork": 5,
            "tbAWork": 5,
            "tbWorkRemaining": 5,
            "tbPercentComplete": 5,
            "tbConstraintType": "a0",
            "tbConstraintDate": "mydate",
            "tbFloat": 0,
            "tbFreeFloat": 0,
            "tbExpHoursPerWeek": 0,
            "tbCostID": "a0",
            "tbCost": 0,
            "tbCostRemaining": 0,
            "tbACost": 0,
            "tbPayRate": 5,
            "tbCostType": "a0",
            "canvasNo": 1,
            "tbAzureID": "a0",
            "kbCoordTop": 5,
            "kbCoordLeft": 5,
            "tbID": "a530"
        }
    ]
}